// Jest Snapshot v1, https://goo.gl/fbAQLP

exports[`Paginator renders Paginator with all links 1`] = `
"<div class=\\"paginator\\">
      
    <a data-testid=\\"previousLink\\" class=\\"\\" href=\\"#/page/1\\">
      ◄
    </a>
  
      
        <a data-testid=\\"pageLink1\\" class=\\"\\" href=\\"#/page/1\\">
            1
        </a>
      
        <a data-testid=\\"pageLink2\\" class=\\"selected\\" href=\\"#/page/2\\">
            2
        </a>
      
        <a data-testid=\\"pageLink3\\" class=\\"\\" href=\\"#/page/3\\">
            3
        </a>
      
      
    <a data-testid=\\"nextLink\\" class=\\"\\" href=\\"#/page/3\\">
      ►
    </a>
  
    </div>
  "
`;
